PARAMETER SET,OCCURRENCE NO,ENTRY NO,PLOT NO,REP,BLOCK NO,ENTRY TYPE,ENTRY ROLE,DESIGN X,DESIGN Y,ROW BLOCK NO,COL BLOCK NO
1,1,23,101,1,1,test,,1,1,,
1,1,6,102,1,1,test,,2,1,,
1,1,17,103,1,1,test,,3,1,,
1,1,20,104,1,1,test,,4,1,,
1,1,10,105,1,1,test,,5,1,,
1,1,15,106,1,1,test,,6,1,,
1,1,25,107,1,1,test,,7,1,,
1,1,30,108,1,1,check,,8,1,,
1,1,9,109,1,1,test,,9,1,,
1,1,1,110,1,1,test,,10,1,,
1,1,26,111,1,2,check,,10,2,,
1,1,2,112,1,2,test,,9,2,,
1,1,7,113,1,2,test,,8,2,,
1,1,18,114,1,2,test,,7,2,,
1,1,28,115,1,2,check,,6,2,,
1,1,21,116,1,2,test,,5,2,,
1,1,11,117,1,2,test,,4,2,,
1,1,24,118,1,2,test,,3,2,,
1,1,13,119,1,2,test,,2,2,,
1,1,4,120,1,2,test,,1,2,,
1,1,29,121,1,3,check,,1,3,,
1,1,12,122,1,3,test,,2,3,,
1,1,8,123,1,3,test,,3,3,,
1,1,19,124,1,3,test,,4,3,,
1,1,27,125,1,3,check,,5,3,,
1,1,22,126,1,3,test,,6,3,,
1,1,3,127,1,3,test,,7,3,,
1,1,5,128,1,3,test,,8,3,,
1,1,16,129,1,3,test,,9,3,,
1,1,14,130,1,3,test,,10,3,,
1,1,13,201,2,1,test,,10,4,,
1,1,25,202,2,1,test,,9,4,,
1,1,17,203,2,1,test,,8,4,,
1,1,22,204,2,1,test,,7,4,,
1,1,7,205,2,1,test,,6,4,,
1,1,20,206,2,1,test,,5,4,,
1,1,12,207,2,1,test,,4,4,,
1,1,28,208,2,1,check,,3,4,,
1,1,6,209,2,1,test,,2,4,,
1,1,3,210,2,1,test,,1,4,,
1,1,14,211,2,2,test,,1,5,,
1,1,18,212,2,2,test,,2,5,,
1,1,23,213,2,2,test,,3,5,,
1,1,21,214,2,2,test,,4,5,,
1,1,8,215,2,2,test,,5,5,,
1,1,10,216,2,2,test,,6,5,,
1,1,26,217,2,2,check,,7,5,,
1,1,4,218,2,2,test,,8,5,,
1,1,1,219,2,2,test,,9,5,,
1,1,29,220,2,2,check,,10,5,,
1,1,5,221,2,3,test,,10,6,,
1,1,11,222,2,3,test,,9,6,,
1,1,15,223,2,3,test,,8,6,,
1,1,30,224,2,3,check,,7,6,,
1,1,16,225,2,3,test,,6,6,,
1,1,27,226,2,3,check,,5,6,,
1,1,19,227,2,3,test,,4,6,,
1,1,24,228,2,3,test,,3,6,,
1,1,2,229,2,3,test,,2,6,,
1,1,9,230,2,3,test,,1,6,,
1,2,30,101,1,1,check,,1,1,,
1,2,15,102,1,1,test,,2,1,,
1,2,24,103,1,1,test,,3,1,,
1,2,17,104,1,1,test,,4,1,,
1,2,8,105,1,1,test,,5,1,,
1,2,6,106,1,1,test,,6,1,,
1,2,19,107,1,1,test,,7,1,,
1,2,1,108,1,1,test,,8,1,,
1,2,11,109,1,1,test,,9,1,,
1,2,25,110,1,1,test,,10,1,,
1,2,10,111,1,2,test,,10,2,,
1,2,7,112,1,2,test,,9,2,,
1,2,27,113,1,2,check,,8,2,,
1,2,5,114,1,2,test,,7,2,,
1,2,23,115,1,2,test,,6,2,,
1,2,16,116,1,2,test,,5,2,,
1,2,14,117,1,2,test,,4,2,,
1,2,3,118,1,2,test,,3,2,,
1,2,29,119,1,2,check,,2,2,,
1,2,21,120,1,2,test,,1,2,,
1,2,12,121,1,3,test,,1,3,,
1,2,2,122,1,3,test,,2,3,,
1,2,26,123,1,3,check,,3,3,,
1,2,18,124,1,3,test,,4,3,,
1,2,22,125,1,3,test,,5,3,,
1,2,28,126,1,3,check,,6,3,,
1,2,20,127,1,3,test,,7,3,,
1,2,4,128,1,3,test,,8,3,,
1,2,13,129,1,3,test,,9,3,,
1,2,9,130,1,3,test,,10,3,,
1,2,28,201,2,1,check,,10,4,,
1,2,9,202,2,1,test,,9,4,,
1,2,4,203,2,1,test,,8,4,,
1,2,12,204,2,1,test,,7,4,,
1,2,25,205,2,1,test,,6,4,,
1,2,14,206,2,1,test,,5,4,,
1,2,22,207,2,1,test,,4,4,,
1,2,19,208,2,1,test,,3,4,,
1,2,1,209,2,1,test,,2,4,,
1,2,18,210,2,1,test,,1,4,,
1,2,20,211,2,2,test,,1,5,,
1,2,2,212,2,2,test,,2,5,,
1,2,5,213,2,2,test,,3,5,,
1,2,10,214,2,2,test,,4,5,,
1,2,29,215,2,2,check,,5,5,,
1,2,15,216,2,2,test,,6,5,,
1,2,23,217,2,2,test,,7,5,,
1,2,16,218,2,2,test,,8,5,,
1,2,7,219,2,2,test,,9,5,,
1,2,26,220,2,2,check,,10,5,,
1,2,3,221,2,3,test,,10,6,,
1,2,27,222,2,3,check,,9,6,,
1,2,6,223,2,3,test,,8,6,,
1,2,21,224,2,3,test,,7,6,,
1,2,8,225,2,3,test,,6,6,,
1,2,30,226,2,3,check,,5,6,,
1,2,13,227,2,3,test,,4,6,,
1,2,24,228,2,3,test,,3,6,,
1,2,17,229,2,3,test,,2,6,,
1,2,11,230,2,3,test,,1,6,,
2,1,15,1,1,,test,,1,1,,
2,1,29,2,1,,check,,1,2,,
2,1,29,3,2,,check,,1,3,,
2,1,12,4,1,,test,,1,4,,
2,1,26,5,1,,check,,1,5,,
2,1,4,6,1,,test,,1,6,,
2,1,27,7,1,,check,,1,7,,
2,1,11,8,1,,test,,2,7,,
2,1,28,9,1,,check,,2,6,,
2,1,8,10,1,,test,,2,5,,
2,1,30,11,1,,check,,2,4,,
2,1,23,12,1,,test,,2,3,,
2,1,25,13,1,,test,,2,2,,
2,1,16,14,1,,test,,2,1,,
2,1,27,15,2,,check,,3,1,,
2,1,17,16,1,,test,,3,2,,
2,1,28,17,2,,check,,3,3,,
2,1,6,18,1,,test,,3,4,,
2,1,29,19,3,,check,,3,5,,
2,1,11,20,2,,test,,3,6,,
2,1,26,21,2,,check,,3,7,,
2,1,22,22,1,,test,,4,7,,
2,1,30,23,2,,check,,4,6,,
2,1,9,24,1,,test,,4,5,,
2,1,26,25,3,,check,,4,4,,
2,1,19,26,1,,test,,4,3,,
2,1,20,27,1,,test,,4,2,,
2,1,14,28,1,,test,,4,1,,
2,1,17,29,2,,test,,5,1,,
2,1,30,30,3,,check,,5,2,,
2,1,13,31,1,,test,,5,3,,
2,1,16,32,2,,test,,5,4,,
2,1,28,33,3,,check,,5,5,,
2,1,7,34,1,,test,,5,6,,
2,1,29,35,4,,check,,5,7,,
2,1,27,36,3,,check,,6,7,,
2,1,22,37,2,,test,,6,6,,
2,1,25,38,2,,test,,6,5,,
2,1,18,39,1,,test,,6,4,,
2,1,28,40,4,,check,,6,3,,
2,1,2,41,1,,test,,6,2,,
2,1,26,42,4,,check,,6,1,,
2,1,24,43,1,,test,,7,1,,
2,1,27,44,4,,check,,7,2,,
2,1,10,45,1,,test,,7,3,,
2,1,26,46,5,,check,,7,4,,
2,1,15,47,2,,test,,7,5,,
2,1,14,48,2,,test,,7,6,,
2,1,30,49,4,,check,,7,7,,
2,1,27,50,5,,check,,8,7,,
2,1,21,51,1,,test,,8,6,,
2,1,28,52,5,,check,,8,5,,
2,1,5,53,1,,test,,8,4,,
2,1,29,54,5,,check,,8,3,,
2,1,13,55,2,,test,,8,2,,
2,1,20,56,2,,test,,8,1,,
2,1,29,57,6,,check,,9,1,,
2,1,1,58,1,,test,,9,2,,
2,1,18,59,2,,test,,9,3,,
2,1,30,60,5,,check,,9,4,,
2,1,3,61,1,,test,,9,5,,
2,1,26,62,6,,check,,9,6,,
2,1,19,63,2,,test,,9,7,,
2,1,27,64,6,,check,,10,7,,
2,1,23,65,2,,test,,10,6,,
2,1,21,66,2,,test,,10,5,,
2,1,28,67,6,,check,,10,4,,
2,1,12,68,2,,test,,10,3,,
2,1,24,69,2,,test,,10,2,,
2,1,30,70,6,,check,,10,1,,
2,2,25,1,1,,test,,1,1,,
2,2,30,2,1,,check,,1,2,,
2,2,14,3,1,,test,,1,3,,
2,2,12,4,1,,test,,1,4,,
2,2,28,5,1,,check,,1,5,,
2,2,22,6,1,,test,,1,6,,
2,2,27,7,1,,check,,1,7,,
2,2,16,8,1,,test,,2,7,,
2,2,29,9,1,,check,,2,6,,
2,2,5,10,1,,test,,2,5,,
2,2,27,11,2,,check,,2,4,,
2,2,21,12,1,,test,,2,3,,
2,2,3,13,1,,test,,2,2,,
2,2,26,14,1,,check,,2,1,,
2,2,29,15,2,,check,,3,1,,
2,2,25,16,2,,test,,3,2,,
2,2,28,17,2,,check,,3,3,,
2,2,7,18,1,,test,,3,4,,
2,2,30,19,2,,check,,3,5,,
2,2,13,20,1,,test,,3,6,,
2,2,26,21,2,,check,,3,7,,
2,2,27,22,3,,check,,4,7,,
2,2,8,23,1,,test,,4,6,,
2,2,18,24,1,,test,,4,5,,
2,2,29,25,3,,check,,4,4,,
2,2,23,26,1,,test,,4,3,,
2,2,11,27,1,,test,,4,2,,
2,2,24,28,1,,test,,4,1,,
2,2,28,29,3,,check,,5,1,,
2,2,17,30,1,,test,,5,2,,
2,2,30,31,3,,check,,5,3,,
2,2,21,32,2,,test,,5,4,,
2,2,13,33,2,,test,,5,5,,
2,2,26,34,3,,check,,5,6,,
2,2,18,35,2,,test,,5,7,,
2,2,28,36,4,,check,,6,7,,
2,2,1,37,1,,test,,6,6,,
2,2,20,38,1,,test,,6,5,,
2,2,29,39,4,,check,,6,4,,
2,2,2,40,1,,test,,6,3,,
2,2,14,41,2,,test,,6,2,,
2,2,27,42,4,,check,,6,1,,
2,2,27,43,5,,check,,7,1,,
2,2,24,44,2,,test,,7,2,,
2,2,26,45,4,,check,,7,3,,
2,2,19,46,1,,test,,7,4,,
2,2,15,47,1,,test,,7,5,,
2,2,30,48,4,,check,,7,6,,
2,2,20,49,2,,test,,7,7,,
2,2,29,50,5,,check,,8,7,,
2,2,10,51,1,,test,,8,6,,
2,2,12,52,2,,test,,8,5,,
2,2,28,53,5,,check,,8,4,,
2,2,6,54,1,,test,,8,3,,
2,2,30,55,5,,check,,8,2,,
2,2,11,56,2,,test,,8,1,,
2,2,29,57,6,,check,,9,1,,
2,2,9,58,1,,test,,9,2,,
2,2,27,59,6,,check,,9,3,,
2,2,4,60,1,,test,,9,4,,
2,2,26,61,5,,check,,9,5,,
2,2,15,62,2,,test,,9,6,,
2,2,17,63,2,,test,,9,7,,
2,2,28,64,6,,check,,10,7,,
2,2,16,65,2,,test,,10,6,,
2,2,22,66,2,,test,,10,5,,
2,2,30,67,6,,check,,10,4,,
2,2,19,68,2,,test,,10,3,,
2,2,23,69,2,,test,,10,2,,
2,2,26,70,6,,check,,10,1,,
3,1,21,101,,1,test,,1,1,,
3,1,14,102,,1,test,,2,1,,
3,1,6,103,,1,test,,3,1,,
3,1,1,104,,1,test,,4,1,,
3,1,25,105,,1,test,,5,1,,
3,1,17,106,,1,test,,6,1,,
3,1,19,107,,1,test,,7,1,,
3,1,7,108,,1,test,,8,1,,
3,1,13,109,,1,test,,9,1,,
3,1,28,110,,1,check,,10,1,,
3,1,5,111,,1,test,,10,2,,
3,1,22,112,,1,test,,9,2,,
3,1,2,113,,1,test,,8,2,,
3,1,26,114,,1,check,,7,2,,
3,1,23,115,,1,test,,6,2,,
3,1,12,116,,1,test,,5,2,,
3,1,20,117,,1,test,,4,2,,
3,1,10,118,,1,test,,3,2,,
3,1,29,119,,1,check,,2,2,,
3,1,8,120,,1,test,,1,2,,
3,1,18,121,,1,test,,1,3,,
3,1,16,122,,1,test,,2,3,,
3,1,4,123,,1,test,,3,3,,
3,1,27,124,,1,check,,4,3,,
3,1,30,125,,1,check,,5,3,,
3,1,11,126,,1,test,,6,3,,
3,1,15,127,,1,test,,7,3,,
3,1,3,128,,1,test,,8,3,,
3,1,24,129,,1,test,,9,3,,
3,1,9,130,,1,test,,10,3,,
3,1,30,201,,2,check,,11,1,,
3,1,19,202,,2,test,,12,1,,
3,1,24,203,,2,test,,13,1,,
3,1,2,204,,2,test,,14,1,,
3,1,9,205,,2,test,,15,1,,
3,1,5,206,,2,test,,16,1,,
3,1,15,207,,2,test,,17,1,,
3,1,1,208,,2,test,,18,1,,
3,1,22,209,,2,test,,19,1,,
3,1,7,210,,2,test,,20,1,,
3,1,10,211,,2,test,,20,2,,
3,1,17,212,,2,test,,19,2,,
3,1,21,213,,2,test,,18,2,,
3,1,27,214,,2,check,,17,2,,
3,1,8,215,,2,test,,16,2,,
3,1,25,216,,2,test,,15,2,,
3,1,11,217,,2,test,,14,2,,
3,1,18,218,,2,test,,13,2,,
3,1,29,219,,2,check,,12,2,,
3,1,3,220,,2,test,,11,2,,
3,1,23,221,,2,test,,11,3,,
3,1,4,222,,2,test,,12,3,,
3,1,20,223,,2,test,,13,3,,
3,1,14,224,,2,test,,14,3,,
3,1,16,225,,2,test,,15,3,,
3,1,26,226,,2,check,,16,3,,
3,1,28,227,,2,check,,17,3,,
3,1,13,228,,2,test,,18,3,,
3,1,6,229,,2,test,,19,3,,
3,1,12,230,,2,test,,20,3,,
3,1,8,301,,3,test,,11,4,,
3,1,2,302,,3,test,,12,4,,
3,1,9,303,,3,test,,13,4,,
3,1,20,304,,3,test,,14,4,,
3,1,7,305,,3,test,,15,4,,
3,1,3,306,,3,test,,16,4,,
3,1,30,307,,3,check,,17,4,,
3,1,23,308,,3,test,,18,4,,
3,1,12,309,,3,test,,19,4,,
3,1,19,310,,3,test,,20,4,,
3,1,18,311,,3,test,,20,5,,
3,1,22,312,,3,test,,19,5,,
3,1,27,313,,3,check,,18,5,,
3,1,29,314,,3,check,,17,5,,
3,1,14,315,,3,test,,16,5,,
3,1,11,316,,3,test,,15,5,,
3,1,26,317,,3,check,,14,5,,
3,1,21,318,,3,test,,13,5,,
3,1,6,319,,3,test,,12,5,,
3,1,15,320,,3,test,,11,5,,
3,1,5,321,,3,test,,11,6,,
3,1,17,322,,3,test,,12,6,,
3,1,25,323,,3,test,,13,6,,
3,1,1,324,,3,test,,14,6,,
3,1,24,325,,3,test,,15,6,,
3,1,16,326,,3,test,,16,6,,
3,1,10,327,,3,test,,17,6,,
3,1,13,328,,3,test,,18,6,,
3,1,28,329,,3,check,,19,6,,
3,1,4,330,,3,test,,20,6,,
3,1,12,401,,4,test,,1,4,,
3,1,30,402,,4,check,,2,4,,
3,1,10,403,,4,test,,3,4,,
3,1,19,404,,4,test,,4,4,,
3,1,16,405,,4,test,,5,4,,
3,1,9,406,,4,test,,6,4,,
3,1,17,407,,4,test,,7,4,,
3,1,25,408,,4,test,,8,4,,
3,1,2,409,,4,test,,9,4,,
3,1,24,410,,4,test,,10,4,,
3,1,6,411,,4,test,,10,5,,
3,1,3,412,,4,test,,9,5,,
3,1,27,413,,4,check,,8,5,,
3,1,22,414,,4,test,,7,5,,
3,1,28,415,,4,check,,6,5,,
3,1,29,416,,4,check,,5,5,,
3,1,26,417,,4,check,,4,5,,
3,1,20,418,,4,test,,3,5,,
3,1,18,419,,4,test,,2,5,,
3,1,11,420,,4,test,,1,5,,
3,1,13,421,,4,test,,1,6,,
3,1,7,422,,4,test,,2,6,,
3,1,15,423,,4,test,,3,6,,
3,1,14,424,,4,test,,4,6,,
3,1,1,425,,4,test,,5,6,,
3,1,8,426,,4,test,,6,6,,
3,1,21,427,,4,test,,7,6,,
3,1,5,428,,4,test,,8,6,,
3,1,4,429,,4,test,,9,6,,
3,1,23,430,,4,test,,10,6,,
3,2,30,101,,1,check,,1,1,,
3,2,24,102,,1,test,,2,1,,
3,2,23,103,,1,test,,3,1,,
3,2,27,104,,1,check,,4,1,,
3,2,14,105,,1,test,,5,1,,
3,2,11,106,,1,test,,6,1,,
3,2,22,107,,1,test,,7,1,,
3,2,19,108,,1,test,,8,1,,
3,2,7,109,,1,test,,9,1,,
3,2,18,110,,1,test,,10,1,,
3,2,10,111,,1,test,,10,2,,
3,2,9,112,,1,test,,9,2,,
3,2,6,113,,1,test,,8,2,,
3,2,21,114,,1,test,,7,2,,
3,2,8,115,,1,test,,6,2,,
3,2,3,116,,1,test,,5,2,,
3,2,2,117,,1,test,,4,2,,
3,2,28,118,,1,check,,3,2,,
3,2,20,119,,1,test,,2,2,,
3,2,4,120,,1,test,,1,2,,
3,2,26,121,,1,check,,1,3,,
3,2,29,122,,1,check,,2,3,,
3,2,1,123,,1,test,,3,3,,
3,2,13,124,,1,test,,4,3,,
3,2,15,125,,1,test,,5,3,,
3,2,25,126,,1,test,,6,3,,
3,2,16,127,,1,test,,7,3,,
3,2,17,128,,1,test,,8,3,,
3,2,12,129,,1,test,,9,3,,
3,2,5,130,,1,test,,10,3,,
3,2,2,201,,2,test,,11,1,,
3,2,18,202,,2,test,,12,1,,
3,2,24,203,,2,test,,13,1,,
3,2,16,204,,2,test,,14,1,,
3,2,28,205,,2,check,,15,1,,
3,2,30,206,,2,check,,16,1,,
3,2,29,207,,2,check,,17,1,,
3,2,25,208,,2,test,,18,1,,
3,2,4,209,,2,test,,19,1,,
3,2,9,210,,2,test,,20,1,,
3,2,23,211,,2,test,,20,2,,
3,2,19,212,,2,test,,19,2,,
3,2,1,213,,2,test,,18,2,,
3,2,27,214,,2,check,,17,2,,
3,2,10,215,,2,test,,16,2,,
3,2,6,216,,2,test,,15,2,,
3,2,14,217,,2,test,,14,2,,
3,2,5,218,,2,test,,13,2,,
3,2,26,219,,2,check,,12,2,,
3,2,12,220,,2,test,,11,2,,
3,2,22,221,,2,test,,11,3,,
3,2,13,222,,2,test,,12,3,,
3,2,21,223,,2,test,,13,3,,
3,2,17,224,,2,test,,14,3,,
3,2,11,225,,2,test,,15,3,,
3,2,3,226,,2,test,,16,3,,
3,2,15,227,,2,test,,17,3,,
3,2,7,228,,2,test,,18,3,,
3,2,20,229,,2,test,,19,3,,
3,2,8,230,,2,test,,20,3,,
3,2,15,301,,3,test,,11,4,,
3,2,24,302,,3,test,,12,4,,
3,2,20,303,,3,test,,13,4,,
3,2,26,304,,3,check,,14,4,,
3,2,5,305,,3,test,,15,4,,
3,2,29,306,,3,check,,16,4,,
3,2,14,307,,3,test,,17,4,,
3,2,30,308,,3,check,,18,4,,
3,2,23,309,,3,test,,19,4,,
3,2,4,310,,3,test,,20,4,,
3,2,19,311,,3,test,,20,5,,
3,2,27,312,,3,check,,19,5,,
3,2,3,313,,3,test,,18,5,,
3,2,13,314,,3,test,,17,5,,
3,2,8,315,,3,test,,16,5,,
3,2,10,316,,3,test,,15,5,,
3,2,1,317,,3,test,,14,5,,
3,2,18,318,,3,test,,13,5,,
3,2,25,319,,3,test,,12,5,,
3,2,7,320,,3,test,,11,5,,
3,2,11,321,,3,test,,11,6,,
3,2,6,322,,3,test,,12,6,,
3,2,9,323,,3,test,,13,6,,
3,2,12,324,,3,test,,14,6,,
3,2,22,325,,3,test,,15,6,,
3,2,16,326,,3,test,,16,6,,
3,2,2,327,,3,test,,17,6,,
3,2,17,328,,3,test,,18,6,,
3,2,21,329,,3,test,,19,6,,
3,2,28,330,,3,check,,20,6,,
3,2,27,401,,4,check,,1,4,,
3,2,24,402,,4,test,,2,4,,
3,2,15,403,,4,test,,3,4,,
3,2,11,404,,4,test,,4,4,,
3,2,17,405,,4,test,,5,4,,
3,2,23,406,,4,test,,6,4,,
3,2,16,407,,4,test,,7,4,,
3,2,6,408,,4,test,,8,4,,
3,2,26,409,,4,check,,9,4,,
3,2,9,410,,4,test,,10,4,,
3,2,8,411,,4,test,,10,5,,
3,2,13,412,,4,test,,9,5,,
3,2,30,413,,4,check,,8,5,,
3,2,14,414,,4,test,,7,5,,
3,2,3,415,,4,test,,6,5,,
3,2,5,416,,4,test,,5,5,,
3,2,2,417,,4,test,,4,5,,
3,2,29,418,,4,check,,3,5,,
3,2,10,419,,4,test,,2,5,,
3,2,4,420,,4,test,,1,5,,
3,2,22,421,,4,test,,1,6,,
3,2,18,422,,4,test,,2,6,,
3,2,20,423,,4,test,,3,6,,
3,2,28,424,,4,check,,4,6,,
3,2,7,425,,4,test,,5,6,,
3,2,12,426,,4,test,,6,6,,
3,2,1,427,,4,test,,7,6,,
3,2,19,428,,4,test,,8,6,,
3,2,25,429,,4,test,,9,6,,
3,2,21,430,,4,test,,10,6,,
4,1,16,101,1,,test,,1,1,1,1
4,1,25,102,1,,test,,2,1,2,1
4,1,15,103,1,,test,,3,1,3,1
4,1,14,104,1,,test,,4,1,4,1
4,1,27,105,1,,check,,5,1,5,1
4,1,30,106,1,,check,,6,1,6,1
4,1,21,107,1,,test,,6,2,6,2
4,1,3,108,1,,test,,5,2,5,2
4,1,19,109,1,,test,,4,2,4,2
4,1,4,110,1,,test,,3,2,3,2
4,1,17,111,1,,test,,2,2,2,2
4,1,20,112,1,,test,,1,2,1,2
4,1,12,113,1,,test,,1,3,1,3
4,1,7,114,1,,test,,2,3,2,3
4,1,6,115,1,,test,,3,3,3,3
4,1,28,116,1,,check,,4,3,4,3
4,1,2,117,1,,test,,5,3,5,3
4,1,26,118,1,,check,,6,3,6,3
4,1,9,119,1,,test,,6,4,6,4
4,1,29,120,1,,check,,5,4,5,4
4,1,8,121,1,,test,,4,4,4,4
4,1,1,122,1,,test,,3,4,3,4
4,1,23,123,1,,test,,2,4,2,4
4,1,5,124,1,,test,,1,4,1,4
4,1,13,125,1,,test,,1,5,1,5
4,1,11,126,1,,test,,2,5,2,5
4,1,18,127,1,,test,,3,5,3,5
4,1,22,128,1,,test,,4,5,4,5
4,1,10,129,1,,test,,5,5,5,5
4,1,24,130,1,,test,,6,5,6,5
4,1,13,201,2,,test,,1,6,1,1
4,1,1,202,2,,test,,2,6,2,1
4,1,28,203,2,,check,,3,6,3,1
4,1,17,204,2,,test,,4,6,4,1
4,1,27,205,2,,check,,5,6,5,1
4,1,26,206,2,,check,,6,6,6,1
4,1,10,207,2,,test,,6,7,6,2
4,1,7,208,2,,test,,5,7,5,2
4,1,8,209,2,,test,,4,7,4,2
4,1,4,210,2,,test,,3,7,3,2
4,1,12,211,2,,test,,2,7,2,2
4,1,9,212,2,,test,,1,7,1,2
4,1,19,213,2,,test,,1,8,1,3
4,1,11,214,2,,test,,2,8,2,3
4,1,24,215,2,,test,,3,8,3,3
4,1,2,216,2,,test,,4,8,4,3
4,1,5,217,2,,test,,5,8,5,3
4,1,15,218,2,,test,,6,8,6,3
4,1,20,219,2,,test,,6,9,6,4
4,1,21,220,2,,test,,5,9,5,4
4,1,18,221,2,,test,,4,9,4,4
4,1,29,222,2,,check,,3,9,3,4
4,1,14,223,2,,test,,2,9,2,4
4,1,25,224,2,,test,,1,9,1,4
4,1,6,225,2,,test,,1,10,1,5
4,1,3,226,2,,test,,2,10,2,5
4,1,16,227,2,,test,,3,10,3,5
4,1,30,228,2,,check,,4,10,4,5
4,1,22,229,2,,test,,5,10,5,5
4,1,23,230,2,,test,,6,10,6,5
4,2,2,101,1,,test,,1,1,1,1
4,2,7,102,1,,test,,2,1,2,1
4,2,29,103,1,,check,,3,1,3,1
4,2,12,104,1,,test,,4,1,4,1
4,2,20,105,1,,test,,5,1,5,1
4,2,14,106,1,,test,,6,1,6,1
4,2,5,107,1,,test,,6,2,6,2
4,2,9,108,1,,test,,5,2,5,2
4,2,16,109,1,,test,,4,2,4,2
4,2,4,110,1,,test,,3,2,3,2
4,2,28,111,1,,check,,2,2,2,2
4,2,26,112,1,,check,,1,2,1,2
4,2,3,113,1,,test,,1,3,1,3
4,2,27,114,1,,check,,2,3,2,3
4,2,19,115,1,,test,,3,3,3,3
4,2,17,116,1,,test,,4,3,4,3
4,2,22,117,1,,test,,5,3,5,3
4,2,1,118,1,,test,,6,3,6,3
4,2,21,119,1,,test,,6,4,6,4
4,2,15,120,1,,test,,5,4,5,4
4,2,24,121,1,,test,,4,4,4,4
4,2,23,122,1,,test,,3,4,3,4
4,2,13,123,1,,test,,2,4,2,4
4,2,8,124,1,,test,,1,4,1,4
4,2,30,125,1,,check,,1,5,1,5
4,2,18,126,1,,test,,2,5,2,5
4,2,6,127,1,,test,,3,5,3,5
4,2,10,128,1,,test,,4,5,4,5
4,2,25,129,1,,test,,5,5,5,5
4,2,11,130,1,,test,,6,5,6,5
4,2,25,201,2,,test,,1,6,1,1
4,2,17,202,2,,test,,2,6,2,1
4,2,28,203,2,,check,,3,6,3,1
4,2,5,204,2,,test,,4,6,4,1
4,2,29,205,2,,check,,5,6,5,1
4,2,8,206,2,,test,,6,6,6,1
4,2,20,207,2,,test,,6,7,6,2
4,2,24,208,2,,test,,5,7,5,2
4,2,7,209,2,,test,,4,7,4,2
4,2,1,210,2,,test,,3,7,3,2
4,2,30,211,2,,check,,2,7,2,2
4,2,4,212,2,,test,,1,7,1,2
4,2,27,213,2,,check,,1,8,1,3
4,2,14,214,2,,test,,2,8,2,3
4,2,10,215,2,,test,,3,8,3,3
4,2,15,216,2,,test,,4,8,4,3
4,2,26,217,2,,check,,5,8,5,3
4,2,19,218,2,,test,,6,8,6,3
4,2,11,219,2,,test,,6,9,6,4
4,2,18,220,2,,test,,5,9,5,4
4,2,3,221,2,,test,,4,9,4,4
4,2,23,222,2,,test,,3,9,3,4
4,2,9,223,2,,test,,2,9,2,4
4,2,12,224,2,,test,,1,9,1,4
4,2,21,225,2,,test,,1,10,1,5
4,2,13,226,2,,test,,2,10,2,5
4,2,2,227,2,,test,,3,10,3,5
4,2,6,228,2,,test,,4,10,4,5
4,2,22,229,2,,test,,5,10,5,5
4,2,16,230,2,,test,,6,10,6,5
5,1,28,101,1,1,check,,,,,
5,1,12,102,1,1,test,,,,,
5,1,23,103,1,1,test,,,,,
5,1,2,104,1,1,test,,,,,
5,1,26,105,1,1,check,,,,,
5,1,4,106,1,1,test,,,,,
5,1,13,107,1,1,test,,,,,
5,1,6,108,1,1,test,,,,,
5,1,29,109,1,1,check,,,,,
5,1,15,110,1,1,test,,,,,
5,1,10,111,1,1,test,,,,,
5,1,7,112,1,1,test,,,,,
5,1,17,113,1,1,test,,,,,
5,1,20,114,1,1,test,,,,,
5,1,21,115,1,1,test,,,,,
5,1,1,116,1,2,test,,,,,
5,1,5,117,1,2,test,,,,,
5,1,22,118,1,2,test,,,,,
5,1,9,119,1,2,test,,,,,
5,1,30,120,1,2,check,,,,,
5,1,18,121,1,2,test,,,,,
5,1,24,122,1,2,test,,,,,
5,1,25,123,1,2,test,,,,,
5,1,19,124,1,2,test,,,,,
5,1,14,125,1,2,test,,,,,
5,1,11,126,1,2,test,,,,,
5,1,8,127,1,2,test,,,,,
5,1,3,128,1,2,test,,,,,
5,1,16,129,1,2,test,,,,,
5,1,27,130,1,2,check,,,,,
5,1,6,201,2,1,test,,,,,
5,1,15,202,2,1,test,,,,,
5,1,12,203,2,1,test,,,,,
5,1,3,204,2,1,test,,,,,
5,1,26,205,2,1,check,,,,,
5,1,14,206,2,1,test,,,,,
5,1,19,207,2,1,test,,,,,
5,1,9,208,2,1,test,,,,,
5,1,8,209,2,1,test,,,,,
5,1,22,210,2,1,test,,,,,
5,1,29,211,2,1,check,,,,,
5,1,28,212,2,1,check,,,,,
5,1,17,213,2,1,test,,,,,
5,1,1,214,2,1,test,,,,,
5,1,23,215,2,1,test,,,,,
5,1,10,216,2,2,test,,,,,
5,1,18,217,2,2,test,,,,,
5,1,7,218,2,2,test,,,,,
5,1,13,219,2,2,test,,,,,
5,1,4,220,2,2,test,,,,,
5,1,25,221,2,2,test,,,,,
5,1,5,222,2,2,test,,,,,
5,1,27,223,2,2,check,,,,,
5,1,20,224,2,2,test,,,,,
5,1,24,225,2,2,test,,,,,
5,1,2,226,2,2,test,,,,,
5,1,30,227,2,2,check,,,,,
5,1,21,228,2,2,test,,,,,
5,1,11,229,2,2,test,,,,,
5,1,16,230,2,2,test,,,,,
5,2,24,101,1,1,test,,,,,
5,2,30,102,1,1,check,,,,,
5,2,16,103,1,1,test,,,,,
5,2,22,104,1,1,test,,,,,
5,2,5,105,1,1,test,,,,,
5,2,20,106,1,1,test,,,,,
5,2,9,107,1,1,test,,,,,
5,2,11,108,1,1,test,,,,,
5,2,2,109,1,1,test,,,,,
5,2,25,110,1,1,test,,,,,
5,2,14,111,1,1,test,,,,,
5,2,18,112,1,1,test,,,,,
5,2,28,113,1,1,check,,,,,
5,2,7,114,1,1,test,,,,,
5,2,4,115,1,1,test,,,,,
5,2,13,116,1,2,test,,,,,
5,2,17,117,1,2,test,,,,,
5,2,27,118,1,2,check,,,,,
5,2,1,119,1,2,test,,,,,
5,2,21,120,1,2,test,,,,,
5,2,26,121,1,2,check,,,,,
5,2,19,122,1,2,test,,,,,
5,2,12,123,1,2,test,,,,,
5,2,8,124,1,2,test,,,,,
5,2,23,125,1,2,test,,,,,
5,2,3,126,1,2,test,,,,,
5,2,15,127,1,2,test,,,,,
5,2,29,128,1,2,check,,,,,
5,2,6,129,1,2,test,,,,,
5,2,10,130,1,2,test,,,,,
5,2,10,201,2,1,test,,,,,
5,2,25,202,2,1,test,,,,,
5,2,27,203,2,1,check,,,,,
5,2,20,204,2,1,test,,,,,
5,2,5,205,2,1,test,,,,,
5,2,29,206,2,1,check,,,,,
5,2,11,207,2,1,test,,,,,
5,2,22,208,2,1,test,,,,,
5,2,14,209,2,1,test,,,,,
5,2,24,210,2,1,test,,,,,
5,2,15,211,2,1,test,,,,,
5,2,4,212,2,1,test,,,,,
5,2,7,213,2,1,test,,,,,
5,2,2,214,2,1,test,,,,,
5,2,18,215,2,1,test,,,,,
5,2,17,216,2,2,test,,,,,
5,2,30,217,2,2,check,,,,,
5,2,8,218,2,2,test,,,,,
5,2,21,219,2,2,test,,,,,
5,2,13,220,2,2,test,,,,,
5,2,26,221,2,2,check,,,,,
5,2,1,222,2,2,test,,,,,
5,2,16,223,2,2,test,,,,,
5,2,9,224,2,2,test,,,,,
5,2,28,225,2,2,check,,,,,
5,2,19,226,2,2,test,,,,,
5,2,23,227,2,2,test,,,,,
5,2,6,228,2,2,test,,,,,
5,2,3,229,2,2,test,,,,,
5,2,12,230,2,2,test,,,,,
6,1,5,101,,1,test,,1,1,,
6,1,14,102,,1,test,,2,1,,
6,1,8,103,,1,test,,3,1,,
6,1,20,104,,1,test,,4,1,,
6,1,21,105,,1,test,,5,1,,
6,1,30,106,,1,check,,6,1,,
6,1,15,107,,1,test,,7,1,,
6,1,11,108,,1,test,,8,1,,
6,1,25,109,,1,test,,9,1,,
6,1,17,110,,1,test,,10,1,,
6,1,1,111,,1,test,,10,2,,
6,1,18,112,,1,test,,9,2,,
6,1,12,113,,1,test,,8,2,,
6,1,27,114,,1,check,,7,2,,
6,1,19,115,,1,test,,6,2,,
6,1,13,116,,1,test,,5,2,,
6,1,28,117,,1,check,,4,2,,
6,1,7,118,,1,test,,3,2,,
6,1,9,119,,1,test,,2,2,,
6,1,26,120,,1,check,,1,2,,
6,1,3,121,,1,test,,1,3,,
6,1,6,122,,1,test,,2,3,,
6,1,24,123,,1,test,,3,3,,
6,1,16,124,,1,test,,4,3,,
6,1,23,125,,1,test,,5,3,,
6,1,2,126,,1,test,,6,3,,
6,1,22,127,,1,test,,7,3,,
6,1,4,128,,1,test,,8,3,,
6,1,29,129,,1,check,,9,3,,
6,1,10,130,,1,test,,10,3,,
6,1,27,201,,2,check,,11,1,,
6,1,19,202,,2,test,,12,1,,
6,1,13,203,,2,test,,13,1,,
6,1,30,204,,2,check,,14,1,,
6,1,22,205,,2,test,,15,1,,
6,1,9,206,,2,test,,16,1,,
6,1,23,207,,2,test,,17,1,,
6,1,14,208,,2,test,,18,1,,
6,1,25,209,,2,test,,19,1,,
6,1,17,210,,2,test,,20,1,,
6,1,11,211,,2,test,,20,2,,
6,1,24,212,,2,test,,19,2,,
6,1,12,213,,2,test,,18,2,,
6,1,28,214,,2,check,,17,2,,
6,1,8,215,,2,test,,16,2,,
6,1,7,216,,2,test,,15,2,,
6,1,18,217,,2,test,,14,2,,
6,1,1,218,,2,test,,13,2,,
6,1,3,219,,2,test,,12,2,,
6,1,15,220,,2,test,,11,2,,
6,1,20,221,,2,test,,11,3,,
6,1,16,222,,2,test,,12,3,,
6,1,4,223,,2,test,,13,3,,
6,1,29,224,,2,check,,14,3,,
6,1,6,225,,2,test,,15,3,,
6,1,2,226,,2,test,,16,3,,
6,1,26,227,,2,check,,17,3,,
6,1,5,228,,2,test,,18,3,,
6,1,21,229,,2,test,,19,3,,
6,1,10,230,,2,test,,20,3,,
6,1,6,301,,3,test,,11,4,,
6,1,12,302,,3,test,,12,4,,
6,1,24,303,,3,test,,13,4,,
6,1,8,304,,3,test,,14,4,,
6,1,10,305,,3,test,,15,4,,
6,1,15,306,,3,test,,16,4,,
6,1,3,307,,3,test,,17,4,,
6,1,26,308,,3,check,,18,4,,
6,1,16,309,,3,test,,19,4,,
6,1,28,310,,3,check,,20,4,,
6,1,13,311,,3,test,,20,5,,
6,1,18,312,,3,test,,19,5,,
6,1,7,313,,3,test,,18,5,,
6,1,9,314,,3,test,,17,5,,
6,1,29,315,,3,check,,16,5,,
6,1,30,316,,3,check,,15,5,,
6,1,23,317,,3,test,,14,5,,
6,1,25,318,,3,test,,13,5,,
6,1,20,319,,3,test,,12,5,,
6,1,22,320,,3,test,,11,5,,
6,1,11,321,,3,test,,11,6,,
6,1,27,322,,3,check,,12,6,,
6,1,1,323,,3,test,,13,6,,
6,1,21,324,,3,test,,14,6,,
6,1,4,325,,3,test,,15,6,,
6,1,5,326,,3,test,,16,6,,
6,1,17,327,,3,test,,17,6,,
6,1,19,328,,3,test,,18,6,,
6,1,2,329,,3,test,,19,6,,
6,1,14,330,,3,test,,20,6,,
6,1,16,401,,4,test,,1,4,,
6,1,2,402,,4,test,,2,4,,
6,1,8,403,,4,test,,3,4,,
6,1,14,404,,4,test,,4,4,,
6,1,7,405,,4,test,,5,4,,
6,1,30,406,,4,check,,6,4,,
6,1,11,407,,4,test,,7,4,,
6,1,20,408,,4,test,,8,4,,
6,1,24,409,,4,test,,9,4,,
6,1,29,410,,4,check,,10,4,,
6,1,21,411,,4,test,,10,5,,
6,1,13,412,,4,test,,9,5,,
6,1,5,413,,4,test,,8,5,,
6,1,4,414,,4,test,,7,5,,
6,1,18,415,,4,test,,6,5,,
6,1,22,416,,4,test,,5,5,,
6,1,17,417,,4,test,,4,5,,
6,1,23,418,,4,test,,3,5,,
6,1,1,419,,4,test,,2,5,,
6,1,26,420,,4,check,,1,5,,
6,1,3,421,,4,test,,1,6,,
6,1,12,422,,4,test,,2,6,,
6,1,19,423,,4,test,,3,6,,
6,1,25,424,,4,test,,4,6,,
6,1,9,425,,4,test,,5,6,,
6,1,15,426,,4,test,,6,6,,
6,1,10,427,,4,test,,7,6,,
6,1,6,428,,4,test,,8,6,,
6,1,27,429,,4,check,,9,6,,
6,1,28,430,,4,check,,10,6,,
6,2,3,101,,1,test,,1,1,,
6,2,1,102,,1,test,,2,1,,
6,2,16,103,,1,test,,3,1,,
6,2,7,104,,1,test,,4,1,,
6,2,11,105,,1,test,,5,1,,
6,2,24,106,,1,test,,6,1,,
6,2,20,107,,1,test,,7,1,,
6,2,28,108,,1,check,,8,1,,
6,2,5,109,,1,test,,9,1,,
6,2,10,110,,1,test,,10,1,,
6,2,25,111,,1,test,,10,2,,
6,2,23,112,,1,test,,9,2,,
6,2,13,113,,1,test,,8,2,,
6,2,12,114,,1,test,,7,2,,
6,2,8,115,,1,test,,6,2,,
6,2,19,116,,1,test,,5,2,,
6,2,15,117,,1,test,,4,2,,
6,2,4,118,,1,test,,3,2,,
6,2,9,119,,1,test,,2,2,,
6,2,6,120,,1,test,,1,2,,
6,2,27,121,,1,check,,1,3,,
6,2,18,122,,1,test,,2,3,,
6,2,29,123,,1,check,,3,3,,
6,2,2,124,,1,test,,4,3,,
6,2,26,125,,1,check,,5,3,,
6,2,14,126,,1,test,,6,3,,
6,2,17,127,,1,test,,7,3,,
6,2,22,128,,1,test,,8,3,,
6,2,30,129,,1,check,,9,3,,
6,2,21,130,,1,test,,10,3,,
6,2,5,201,,2,test,,11,1,,
6,2,11,202,,2,test,,12,1,,
6,2,17,203,,2,test,,13,1,,
6,2,23,204,,2,test,,14,1,,
6,2,4,205,,2,test,,15,1,,
6,2,20,206,,2,test,,16,1,,
6,2,18,207,,2,test,,17,1,,
6,2,29,208,,2,check,,18,1,,
6,2,26,209,,2,check,,19,1,,
6,2,6,210,,2,test,,20,1,,
6,2,12,211,,2,test,,20,2,,
6,2,8,212,,2,test,,19,2,,
6,2,7,213,,2,test,,18,2,,
6,2,9,214,,2,test,,17,2,,
6,2,1,215,,2,test,,16,2,,
6,2,2,216,,2,test,,15,2,,
6,2,10,217,,2,test,,14,2,,
6,2,24,218,,2,test,,13,2,,
6,2,21,219,,2,test,,12,2,,
6,2,28,220,,2,check,,11,2,,
6,2,14,221,,2,test,,11,3,,
6,2,13,222,,2,test,,12,3,,
6,2,22,223,,2,test,,13,3,,
6,2,16,224,,2,test,,14,3,,
6,2,25,225,,2,test,,15,3,,
6,2,15,226,,2,test,,16,3,,
6,2,19,227,,2,test,,17,3,,
6,2,27,228,,2,check,,18,3,,
6,2,3,229,,2,test,,19,3,,
6,2,30,230,,2,check,,20,3,,
6,2,22,301,,3,test,,11,4,,
6,2,27,302,,3,check,,12,4,,
6,2,5,303,,3,test,,13,4,,
6,2,26,304,,3,check,,14,4,,
6,2,8,305,,3,test,,15,4,,
6,2,28,306,,3,check,,16,4,,
6,2,30,307,,3,check,,17,4,,
6,2,23,308,,3,test,,18,4,,
6,2,20,309,,3,test,,19,4,,
6,2,21,310,,3,test,,20,4,,
6,2,7,311,,3,test,,20,5,,
6,2,12,312,,3,test,,19,5,,
6,2,14,313,,3,test,,18,5,,
6,2,24,314,,3,test,,17,5,,
6,2,3,315,,3,test,,16,5,,
6,2,13,316,,3,test,,15,5,,
6,2,17,317,,3,test,,14,5,,
6,2,16,318,,3,test,,13,5,,
6,2,15,319,,3,test,,12,5,,
6,2,10,320,,3,test,,11,5,,
6,2,6,321,,3,test,,11,6,,
6,2,4,322,,3,test,,12,6,,
6,2,29,323,,3,check,,13,6,,
6,2,2,324,,3,test,,14,6,,
6,2,25,325,,3,test,,15,6,,
6,2,11,326,,3,test,,16,6,,
6,2,1,327,,3,test,,17,6,,
6,2,9,328,,3,test,,18,6,,
6,2,18,329,,3,test,,19,6,,
6,2,19,330,,3,test,,20,6,,
6,2,23,401,,4,test,,1,4,,
6,2,26,402,,4,check,,2,4,,
6,2,12,403,,4,test,,3,4,,
6,2,27,404,,4,check,,4,4,,
6,2,18,405,,4,test,,5,4,,
6,2,28,406,,4,check,,6,4,,
6,2,9,407,,4,test,,7,4,,
6,2,21,408,,4,test,,8,4,,
6,2,15,409,,4,test,,9,4,,
6,2,16,410,,4,test,,10,4,,
6,2,13,411,,4,test,,10,5,,
6,2,1,412,,4,test,,9,5,,
6,2,17,413,,4,test,,8,5,,
6,2,6,414,,4,test,,7,5,,
6,2,19,415,,4,test,,6,5,,
6,2,11,416,,4,test,,5,5,,
6,2,8,417,,4,test,,4,5,,
6,2,5,418,,4,test,,3,5,,
6,2,22,419,,4,test,,2,5,,
6,2,30,420,,4,check,,1,5,,
6,2,25,421,,4,test,,1,6,,
6,2,24,422,,4,test,,2,6,,
6,2,29,423,,4,check,,3,6,,
6,2,14,424,,4,test,,4,6,,
6,2,7,425,,4,test,,5,6,,
6,2,10,426,,4,test,,6,6,,
6,2,4,427,,4,test,,7,6,,
6,2,20,428,,4,test,,8,6,,
6,2,2,429,,4,test,,9,6,,
6,2,3,430,,4,test,,10,6,,
7,1,3,101,,1,test,,1,1,,
7,1,1,102,,1,test,,2,1,,
7,1,16,103,,1,test,,3,1,,
7,1,7,104,,1,test,,4,1,,
7,1,11,105,,1,test,,5,1,,
7,1,24,106,,1,test,,6,1,,
7,1,20,107,,1,test,,7,1,,
7,1,28,108,,1,check,,8,1,,
7,1,5,109,,1,test,,9,1,,
7,1,10,110,,1,test,,10,1,,
7,1,25,111,,1,test,,10,2,,
7,1,23,112,,1,test,,9,2,,
7,1,13,113,,1,test,,8,2,,
7,1,12,114,,1,test,,7,2,,
7,1,8,115,,1,test,,6,2,,
7,1,19,116,,1,test,,5,2,,
7,1,15,117,,1,test,,4,2,,
7,1,4,118,,1,test,,3,2,,
7,1,9,119,,1,test,,2,2,,
7,1,6,120,,1,test,,1,2,,
7,1,27,121,,1,check,,1,3,,
7,1,18,122,,1,test,,2,3,,
7,1,29,123,,1,check,,3,3,,
7,1,2,124,,1,test,,4,3,,
7,1,26,125,,1,check,,5,3,,
7,1,14,126,,1,test,,6,3,,
7,1,17,127,,1,test,,7,3,,
7,1,22,128,,1,test,,8,3,,
7,1,30,129,,1,check,,9,3,,
7,1,21,130,,1,test,,10,3,,
7,1,5,201,,2,test,,11,1,,
7,1,11,202,,2,test,,12,1,,
7,1,17,203,,2,test,,13,1,,
7,1,23,204,,2,test,,14,1,,
7,1,4,205,,2,test,,15,1,,
7,1,20,206,,2,test,,16,1,,
7,1,18,207,,2,test,,17,1,,
7,1,29,208,,2,check,,18,1,,
7,1,26,209,,2,check,,19,1,,
7,1,6,210,,2,test,,20,1,,
7,1,12,211,,2,test,,20,2,,
7,1,8,212,,2,test,,19,2,,
7,1,7,213,,2,test,,18,2,,
7,1,9,214,,2,test,,17,2,,
7,1,1,215,,2,test,,16,2,,
7,1,2,216,,2,test,,15,2,,
7,1,10,217,,2,test,,14,2,,
7,1,24,218,,2,test,,13,2,,
7,1,21,219,,2,test,,12,2,,
7,1,28,220,,2,check,,11,2,,
7,1,14,221,,2,test,,11,3,,
7,1,13,222,,2,test,,12,3,,
7,1,22,223,,2,test,,13,3,,
7,1,16,224,,2,test,,14,3,,
7,1,25,225,,2,test,,15,3,,
7,1,15,226,,2,test,,16,3,,
7,1,19,227,,2,test,,17,3,,
7,1,27,228,,2,check,,18,3,,
7,1,3,229,,2,test,,19,3,,
7,1,30,230,,2,check,,20,3,,
7,1,22,301,,3,test,,11,4,,
7,1,27,302,,3,check,,12,4,,
7,1,5,303,,3,test,,13,4,,
7,1,26,304,,3,check,,14,4,,
7,1,8,305,,3,test,,15,4,,
7,1,28,306,,3,check,,16,4,,
7,1,30,307,,3,check,,17,4,,
7,1,23,308,,3,test,,18,4,,
7,1,20,309,,3,test,,19,4,,
7,1,21,310,,3,test,,20,4,,
7,1,7,311,,3,test,,20,5,,
7,1,12,312,,3,test,,19,5,,
7,1,14,313,,3,test,,18,5,,
7,1,24,314,,3,test,,17,5,,
7,1,3,315,,3,test,,16,5,,
7,1,13,316,,3,test,,15,5,,
7,1,17,317,,3,test,,14,5,,
7,1,16,318,,3,test,,13,5,,
7,1,15,319,,3,test,,12,5,,
7,1,10,320,,3,test,,11,5,,
7,1,6,321,,3,test,,11,6,,
7,1,4,322,,3,test,,12,6,,
7,1,29,323,,3,check,,13,6,,
7,1,2,324,,3,test,,14,6,,
7,1,25,325,,3,test,,15,6,,
7,1,11,326,,3,test,,16,6,,
7,1,1,327,,3,test,,17,6,,
7,1,9,328,,3,test,,18,6,,
7,1,18,329,,3,test,,19,6,,
7,1,19,330,,3,test,,20,6,,
7,1,23,401,,4,test,,1,4,,
7,1,26,402,,4,check,,2,4,,
7,1,12,403,,4,test,,3,4,,
7,1,27,404,,4,check,,4,4,,
7,1,18,405,,4,test,,5,4,,
7,1,28,406,,4,check,,6,4,,
7,1,9,407,,4,test,,7,4,,
7,1,21,408,,4,test,,8,4,,
7,1,15,409,,4,test,,9,4,,
7,1,16,410,,4,test,,10,4,,
7,1,13,411,,4,test,,10,5,,
7,1,1,412,,4,test,,9,5,,
7,1,17,413,,4,test,,8,5,,
7,1,6,414,,4,test,,7,5,,
7,1,19,415,,4,test,,6,5,,
7,1,11,416,,4,test,,5,5,,
7,1,8,417,,4,test,,4,5,,
7,1,5,418,,4,test,,3,5,,
7,1,22,419,,4,test,,2,5,,
7,1,30,420,,4,check,,1,5,,
7,1,25,421,,4,test,,1,6,,
7,1,24,422,,4,test,,2,6,,
7,1,29,423,,4,check,,3,6,,
7,1,14,424,,4,test,,4,6,,
7,1,7,425,,4,test,,5,6,,
7,1,10,426,,4,test,,6,6,,
7,1,4,427,,4,test,,7,6,,
7,1,20,428,,4,test,,8,6,,
7,1,2,429,,4,test,,9,6,,
7,1,3,430,,4,test,,10,6,,
7,2,3,101,,1,test,,1,1,,
7,2,1,102,,1,test,,2,1,,
7,2,16,103,,1,test,,3,1,,
7,2,7,104,,1,test,,4,1,,
7,2,11,105,,1,test,,5,1,,
7,2,24,106,,1,test,,6,1,,
7,2,20,107,,1,test,,7,1,,
7,2,28,108,,1,check,,8,1,,
7,2,5,109,,1,test,,9,1,,
7,2,10,110,,1,test,,10,1,,
7,2,25,111,,1,test,,10,2,,
7,2,23,112,,1,test,,9,2,,
7,2,13,113,,1,test,,8,2,,
7,2,12,114,,1,test,,7,2,,
7,2,8,115,,1,test,,6,2,,
7,2,19,116,,1,test,,5,2,,
7,2,15,117,,1,test,,4,2,,
7,2,4,118,,1,test,,3,2,,
7,2,9,119,,1,test,,2,2,,
7,2,6,120,,1,test,,1,2,,
7,2,27,121,,1,check,,1,3,,
7,2,18,122,,1,test,,2,3,,
7,2,29,123,,1,check,,3,3,,
7,2,2,124,,1,test,,4,3,,
7,2,26,125,,1,check,,5,3,,
7,2,14,126,,1,test,,6,3,,
7,2,17,127,,1,test,,7,3,,
7,2,22,128,,1,test,,8,3,,
7,2,30,129,,1,check,,9,3,,
7,2,21,130,,1,test,,10,3,,
7,2,5,201,,2,test,,11,1,,
7,2,11,202,,2,test,,12,1,,
7,2,17,203,,2,test,,13,1,,
7,2,23,204,,2,test,,14,1,,
7,2,4,205,,2,test,,15,1,,
7,2,20,206,,2,test,,16,1,,
7,2,18,207,,2,test,,17,1,,
7,2,29,208,,2,check,,18,1,,
7,2,26,209,,2,check,,19,1,,
7,2,6,210,,2,test,,20,1,,
7,2,12,211,,2,test,,20,2,,
7,2,8,212,,2,test,,19,2,,
7,2,7,213,,2,test,,18,2,,
7,2,9,214,,2,test,,17,2,,
7,2,1,215,,2,test,,16,2,,
7,2,2,216,,2,test,,15,2,,
7,2,10,217,,2,test,,14,2,,
7,2,24,218,,2,test,,13,2,,
7,2,21,219,,2,test,,12,2,,
7,2,28,220,,2,check,,11,2,,
7,2,14,221,,2,test,,11,3,,
7,2,13,222,,2,test,,12,3,,
7,2,22,223,,2,test,,13,3,,
7,2,16,224,,2,test,,14,3,,
7,2,25,225,,2,test,,15,3,,
7,2,15,226,,2,test,,16,3,,
7,2,19,227,,2,test,,17,3,,
7,2,27,228,,2,check,,18,3,,
7,2,3,229,,2,test,,19,3,,
7,2,30,230,,2,check,,20,3,,
7,2,22,301,,3,test,,11,4,,
7,2,27,302,,3,check,,12,4,,
7,2,5,303,,3,test,,13,4,,
7,2,26,304,,3,check,,14,4,,
7,2,8,305,,3,test,,15,4,,
7,2,28,306,,3,check,,16,4,,
7,2,30,307,,3,check,,17,4,,
7,2,23,308,,3,test,,18,4,,
7,2,20,309,,3,test,,19,4,,
7,2,21,310,,3,test,,20,4,,
7,2,7,311,,3,test,,20,5,,
7,2,12,312,,3,test,,19,5,,
7,2,14,313,,3,test,,18,5,,
7,2,24,314,,3,test,,17,5,,
7,2,3,315,,3,test,,16,5,,
7,2,13,316,,3,test,,15,5,,
7,2,17,317,,3,test,,14,5,,
7,2,16,318,,3,test,,13,5,,
7,2,15,319,,3,test,,12,5,,
7,2,10,320,,3,test,,11,5,,
7,2,6,321,,3,test,,11,6,,
7,2,4,322,,3,test,,12,6,,
7,2,29,323,,3,check,,13,6,,
7,2,2,324,,3,test,,14,6,,
7,2,25,325,,3,test,,15,6,,
7,2,11,326,,3,test,,16,6,,
7,2,1,327,,3,test,,17,6,,
7,2,9,328,,3,test,,18,6,,
7,2,18,329,,3,test,,19,6,,
7,2,19,330,,3,test,,20,6,,
7,2,23,401,,4,test,,1,4,,
7,2,26,402,,4,check,,2,4,,
7,2,12,403,,4,test,,3,4,,
7,2,27,404,,4,check,,4,4,,
7,2,18,405,,4,test,,5,4,,
7,2,28,406,,4,check,,6,4,,
7,2,9,407,,4,test,,7,4,,
7,2,21,408,,4,test,,8,4,,
7,2,15,409,,4,test,,9,4,,
7,2,16,410,,4,test,,10,4,,
7,2,13,411,,4,test,,10,5,,
7,2,1,412,,4,test,,9,5,,
7,2,17,413,,4,test,,8,5,,
7,2,6,414,,4,test,,7,5,,
7,2,19,415,,4,test,,6,5,,
7,2,11,416,,4,test,,5,5,,
7,2,8,417,,4,test,,4,5,,
7,2,5,418,,4,test,,3,5,,
7,2,22,419,,4,test,,2,5,,
7,2,30,420,,4,check,,1,5,,
7,2,25,421,,4,test,,1,6,,
7,2,24,422,,4,test,,2,6,,
7,2,29,423,,4,check,,3,6,,
7,2,14,424,,4,test,,4,6,,
7,2,7,425,,4,test,,5,6,,
7,2,10,426,,4,test,,6,6,,
7,2,4,427,,4,test,,7,6,,
7,2,20,428,,4,test,,8,6,,
7,2,2,429,,4,test,,9,6,,
7,2,3,430,,4,test,,10,6,,
7,3,3,101,,1,test,,1,1,,
7,3,1,102,,1,test,,2,1,,
7,3,16,103,,1,test,,3,1,,
7,3,7,104,,1,test,,4,1,,
7,3,11,105,,1,test,,5,1,,
7,3,24,106,,1,test,,6,1,,
7,3,20,107,,1,test,,7,1,,
7,3,28,108,,1,check,,8,1,,
7,3,5,109,,1,test,,9,1,,
7,3,10,110,,1,test,,10,1,,
7,3,25,111,,1,test,,10,2,,
7,3,23,112,,1,test,,9,2,,
7,3,13,113,,1,test,,8,2,,
7,3,12,114,,1,test,,7,2,,
7,3,8,115,,1,test,,6,2,,
7,3,19,116,,1,test,,5,2,,
7,3,15,117,,1,test,,4,2,,
7,3,4,118,,1,test,,3,2,,
7,3,9,119,,1,test,,2,2,,
7,3,6,120,,1,test,,1,2,,
7,3,27,121,,1,check,,1,3,,
7,3,18,122,,1,test,,2,3,,
7,3,29,123,,1,check,,3,3,,
7,3,2,124,,1,test,,4,3,,
7,3,26,125,,1,check,,5,3,,
7,3,14,126,,1,test,,6,3,,
7,3,17,127,,1,test,,7,3,,
7,3,22,128,,1,test,,8,3,,
7,3,30,129,,1,check,,9,3,,
7,3,21,130,,1,test,,10,3,,
7,3,5,201,,2,test,,11,1,,
7,3,11,202,,2,test,,12,1,,
7,3,17,203,,2,test,,13,1,,
7,3,23,204,,2,test,,14,1,,
7,3,4,205,,2,test,,15,1,,
7,3,20,206,,2,test,,16,1,,
7,3,18,207,,2,test,,17,1,,
7,3,29,208,,2,check,,18,1,,
7,3,26,209,,2,check,,19,1,,
7,3,6,210,,2,test,,20,1,,
7,3,12,211,,2,test,,20,2,,
7,3,8,212,,2,test,,19,2,,
7,3,7,213,,2,test,,18,2,,
7,3,9,214,,2,test,,17,2,,
7,3,1,215,,2,test,,16,2,,
7,3,2,216,,2,test,,15,2,,
7,3,10,217,,2,test,,14,2,,
7,3,24,218,,2,test,,13,2,,
7,3,21,219,,2,test,,12,2,,
7,3,28,220,,2,check,,11,2,,
7,3,14,221,,2,test,,11,3,,
7,3,13,222,,2,test,,12,3,,
7,3,22,223,,2,test,,13,3,,
7,3,16,224,,2,test,,14,3,,
7,3,25,225,,2,test,,15,3,,
7,3,15,226,,2,test,,16,3,,
7,3,19,227,,2,test,,17,3,,
7,3,27,228,,2,check,,18,3,,
7,3,3,229,,2,test,,19,3,,
7,3,30,230,,2,check,,20,3,,
7,3,22,301,,3,test,,11,4,,
7,3,27,302,,3,check,,12,4,,
7,3,5,303,,3,test,,13,4,,
7,3,26,304,,3,check,,14,4,,
7,3,8,305,,3,test,,15,4,,
7,3,28,306,,3,check,,16,4,,
7,3,30,307,,3,check,,17,4,,
7,3,23,308,,3,test,,18,4,,
7,3,20,309,,3,test,,19,4,,
7,3,21,310,,3,test,,20,4,,
7,3,7,311,,3,test,,20,5,,
7,3,12,312,,3,test,,19,5,,
7,3,14,313,,3,test,,18,5,,
7,3,24,314,,3,test,,17,5,,
7,3,3,315,,3,test,,16,5,,
7,3,13,316,,3,test,,15,5,,
7,3,17,317,,3,test,,14,5,,
7,3,16,318,,3,test,,13,5,,
7,3,15,319,,3,test,,12,5,,
7,3,10,320,,3,test,,11,5,,
7,3,6,321,,3,test,,11,6,,
7,3,4,322,,3,test,,12,6,,
7,3,29,323,,3,check,,13,6,,
7,3,2,324,,3,test,,14,6,,
7,3,25,325,,3,test,,15,6,,
7,3,11,326,,3,test,,16,6,,
7,3,1,327,,3,test,,17,6,,
7,3,9,328,,3,test,,18,6,,
7,3,18,329,,3,test,,19,6,,
7,3,19,330,,3,test,,20,6,,
7,3,23,401,,4,test,,1,4,,
7,3,26,402,,4,check,,2,4,,
7,3,12,403,,4,test,,3,4,,
7,3,27,404,,4,check,,4,4,,
7,3,18,405,,4,test,,5,4,,
7,3,28,406,,4,check,,6,4,,
7,3,9,407,,4,test,,7,4,,
7,3,21,408,,4,test,,8,4,,
7,3,15,409,,4,test,,9,4,,
7,3,16,410,,4,test,,10,4,,
7,3,13,411,,4,test,,10,5,,
7,3,1,412,,4,test,,9,5,,
7,3,17,413,,4,test,,8,5,,
7,3,6,414,,4,test,,7,5,,
7,3,19,415,,4,test,,6,5,,
7,3,11,416,,4,test,,5,5,,
7,3,8,417,,4,test,,4,5,,
7,3,5,418,,4,test,,3,5,,
7,3,22,419,,4,test,,2,5,,
7,3,30,420,,4,check,,1,5,,
7,3,25,421,,4,test,,1,6,,
7,3,24,422,,4,test,,2,6,,
7,3,29,423,,4,check,,3,6,,
7,3,14,424,,4,test,,4,6,,
7,3,7,425,,4,test,,5,6,,
7,3,10,426,,4,test,,6,6,,
7,3,4,427,,4,test,,7,6,,
7,3,20,428,,4,test,,8,6,,
7,3,2,429,,4,test,,9,6,,
7,3,3,430,,4,test,,10,6,,
